%YAML 1.1
%TAG !u! tag:unity3d.com,2011:
--- !u!74 &7400000
AnimationClip:
  m_ObjectHideFlags: 0
  m_CorrespondingSourceObject: {fileID: 0}
  m_PrefabInstance: {fileID: 0}
  m_PrefabAsset: {fileID: 0}
  m_Name: SequenceShapeFit
  serializedVersion: 6
  m_Legacy: 0
  m_Compressed: 0
  m_UseHighQualityCurve: 1
  m_RotationCurves: []
  m_CompressedRotationCurves: []
  m_EulerCurves: []
  m_PositionCurves: []
  m_ScaleCurves: []
  m_FloatCurves: []
  m_PPtrCurves:
  - curve:
    - time: 0
      value: {fileID: 21300000, guid: 4d42199ec6c35c3468f8f0cc12024b95, type: 3}
    - time: 0.06666667
      value: {fileID: 21300000, guid: 6ef708366a25e1f44b3f7879049990d6, type: 3}
    - time: 0.13333334
      value: {fileID: 21300000, guid: 034be098c6306934ba9cfda2a4dbc22c, type: 3}
    - time: 0.2
      value: {fileID: 21300000, guid: cfb09816f0bbb73408493274786df62b, type: 3}
    - time: 0.26666668
      value: {fileID: 21300000, guid: 82fc526ebeabc9040aea2561f5d6a5ca, type: 3}
    - time: 0.33333334
      value: {fileID: 21300000, guid: b5ea88640f22fa34a84c7fb48b472e7d, type: 3}
    - time: 0.4
      value: {fileID: 21300000, guid: a729a8e904ce5e1479c46ab39faf0cb4, type: 3}
    - time: 0.46666667
      value: {fileID: 21300000, guid: b28e320ba9ee5b34482d5f50103c0b27, type: 3}
    - time: 0.53333336
      value: {fileID: 21300000, guid: 1d3740e17150c664983eef6a74252847, type: 3}
    - time: 0.6
      value: {fileID: 21300000, guid: 79d93c1fd8a397647855caa2a3dd50cc, type: 3}
    - time: 0.6666667
      value: {fileID: 21300000, guid: 7ed5753dca7f06747b4fdbc41e777de0, type: 3}
    - time: 0.73333335
      value: {fileID: 21300000, guid: 943822e53ee56504fb4de34eaebb2bee, type: 3}
    - time: 0.8
      value: {fileID: 21300000, guid: e664e748b10be8e418265c47ce74d3e6, type: 3}
    - time: 0.8666667
      value: {fileID: 21300000, guid: ad1195756c1a32f4d8714725842b5700, type: 3}
    - time: 0.93333334
      value: {fileID: 21300000, guid: 17741a31908464441b960d961771f9b1, type: 3}
    - time: 1
      value: {fileID: 21300000, guid: 31be7bf1ab0e1974696ba559e685dfb2, type: 3}
    - time: 1.0666667
      value: {fileID: 21300000, guid: f861768c4be80e14fb8e663870614d5e, type: 3}
    - time: 1.1333333
      value: {fileID: 21300000, guid: 5c19b71a874ba054d87cdbc28d771608, type: 3}
    - time: 1.2
      value: {fileID: 21300000, guid: 9aa3e1e6d97b56f4f931f923208a7e73, type: 3}
    - time: 1.2666667
      value: {fileID: 21300000, guid: f1706baeb10412d44ab878194e01552c, type: 3}
    - time: 1.3333334
      value: {fileID: 21300000, guid: c7454dd0cf0e3c747b70d63280735745, type: 3}
    - time: 1.4
      value: {fileID: 21300000, guid: 059779c6668f26c4dbabedd2a1ff43fc, type: 3}
    - time: 1.4666667
      value: {fileID: 21300000, guid: 73f5053ab9d759247978b4a3a752ae33, type: 3}
    - time: 1.5333333
      value: {fileID: 21300000, guid: f45daea60dee6064ca7723cf213bc400, type: 3}
    - time: 1.6
      value: {fileID: 21300000, guid: 05776b43d17bcd2448cf587c226d1929, type: 3}
    - time: 1.6666666
      value: {fileID: 21300000, guid: d8b8bb4223b45894b90a1fc0e1634447, type: 3}
    - time: 1.7333333
      value: {fileID: 21300000, guid: 83c8738d9d895ef4193eecf9c316fed6, type: 3}
    - time: 1.8
      value: {fileID: 21300000, guid: c0cfd7bfb7515d04a9905bf59d541def, type: 3}
    - time: 1.8666667
      value: {fileID: 21300000, guid: d46d4e6980a7fa54d9f12b04a11170ff, type: 3}
    - time: 1.9333333
      value: {fileID: 21300000, guid: d5c8711f8ba233d498ab6656f3d8e828, type: 3}
    - time: 2
      value: {fileID: 21300000, guid: 5dc247da6c2a3d64ca6eae5266880396, type: 3}
    - time: 2.0666666
      value: {fileID: 21300000, guid: 744d271657b54334b97ef8c1dd39bc8f, type: 3}
    - time: 2.1333334
      value: {fileID: 21300000, guid: b9703b7a06f675e4b81f5a747df78295, type: 3}
    - time: 2.2
      value: {fileID: 21300000, guid: 9365e07eac66ee84f8f5a3b88879c0ee, type: 3}
    - time: 2.2666667
      value: {fileID: 21300000, guid: eb9ba05328ba6844d95a899deec48aca, type: 3}
    - time: 2.3333333
      value: {fileID: 21300000, guid: 2a7006ff9e2928247b982acf8d421e4e, type: 3}
    - time: 2.4
      value: {fileID: 21300000, guid: dcc29ffff4798da42bf3244b95d1aa0e, type: 3}
    - time: 2.4666667
      value: {fileID: 21300000, guid: 689fa28b287309041a322d6cc8351ea0, type: 3}
    - time: 2.5333333
      value: {fileID: 21300000, guid: 91146e1cc4856ed44837672315ddfe2a, type: 3}
    - time: 2.6
      value: {fileID: 21300000, guid: fca1ffc9b17234448b3f570a79fd1192, type: 3}
    - time: 2.6666667
      value: {fileID: 21300000, guid: 6f0e8fbc24fb771488f259dd1c6dad66, type: 3}
    - time: 2.7333333
      value: {fileID: 21300000, guid: 09a284134d9242640a90f8aadd8403a0, type: 3}
    - time: 2.8
      value: {fileID: 21300000, guid: bc9e6cebfebb91a48aec448d530ee76e, type: 3}
    - time: 2.8666666
      value: {fileID: 21300000, guid: e03535d09b9a15c428120b17005cffdb, type: 3}
    - time: 2.9333334
      value: {fileID: 21300000, guid: 7d38112c38500af4aabde6bff8e466a7, type: 3}
    - time: 3
      value: {fileID: 21300000, guid: 7a0a1c5273fb69b46a3722769f70822e, type: 3}
    - time: 3.0666666
      value: {fileID: 21300000, guid: bc3a3d6d07f104140a82f018538137f2, type: 3}
    - time: 3.1333334
      value: {fileID: 21300000, guid: 328772051e67402478889cbfc04f6ea0, type: 3}
    - time: 3.2
      value: {fileID: 21300000, guid: 0d8871347268b0740911de936faabf1c, type: 3}
    - time: 3.2666667
      value: {fileID: 21300000, guid: bceff23077c07a24b91a9fc1455d9d4d, type: 3}
    - time: 3.3333333
      value: {fileID: 21300000, guid: f14df95bb6415e444bbfbf1ee155cbba, type: 3}
    - time: 3.4
      value: {fileID: 21300000, guid: 5b69d2c5b32b44d499b67c0b1c4b39db, type: 3}
    - time: 3.4666667
      value: {fileID: 21300000, guid: b56596ef06764c440addb23a0f399522, type: 3}
    - time: 3.5333333
      value: {fileID: 21300000, guid: c52cd49e2fc5f5a47bed4cd8010c7ead, type: 3}
    - time: 3.6
      value: {fileID: 21300000, guid: e885e35d7ebdac6489cf18f97d14fecd, type: 3}
    - time: 3.6666667
      value: {fileID: 21300000, guid: 6e8fd6eb7e177ba41a547634338d0488, type: 3}
    - time: 3.7333333
      value: {fileID: 21300000, guid: 5172695429478b44c9970af1f5c99429, type: 3}
    - time: 3.8
      value: {fileID: 21300000, guid: 104bdffe1f56dbc4fa22769deab3af37, type: 3}
    - time: 3.8666666
      value: {fileID: 21300000, guid: 544634c9812813e4f81fd6cc24508688, type: 3}
    - time: 3.9333334
      value: {fileID: 21300000, guid: 7f2fb80d1e2f66c46a84d5266a48eca6, type: 3}
    - time: 4
      value: {fileID: 21300000, guid: 0eafcb58ce9c98a49ab5c889c62a7fd0, type: 3}
    - time: 4.0666666
      value: {fileID: 21300000, guid: 0862473a42943c8488f0783029f97006, type: 3}
    - time: 4.133333
      value: {fileID: 21300000, guid: a4f38675e37421f40b3e13f715065813, type: 3}
    - time: 4.2
      value: {fileID: 21300000, guid: de5eeecef08e8b24ca8fdeaad2b11426, type: 3}
    - time: 4.266667
      value: {fileID: 21300000, guid: db1b02d93270c58478d7d9e1c4cfccc9, type: 3}
    - time: 4.3333335
      value: {fileID: 21300000, guid: a69f2988aad4bc948878d0b580b01e45, type: 3}
    - time: 4.4
      value: {fileID: 21300000, guid: 8aa22777b37386c40923a1b2ddee38cf, type: 3}
    - time: 4.4666667
      value: {fileID: 21300000, guid: 5eb9d368a6887e541b54e18e573e01ec, type: 3}
    - time: 4.5333333
      value: {fileID: 21300000, guid: c905dde291cc51749b224e6f5e9e9ea9, type: 3}
    - time: 4.6
      value: {fileID: 21300000, guid: 283299448ef64a44db618ecc4935f89b, type: 3}
    - time: 4.6666665
      value: {fileID: 21300000, guid: 52bc2450a2d704b4d97ad5f1ac4d08ad, type: 3}
    - time: 4.733333
      value: {fileID: 21300000, guid: a14d82b70396aea48a36308723a29970, type: 3}
    - time: 4.8
      value: {fileID: 21300000, guid: fa34943f9c3e39640afb76d169130e35, type: 3}
    - time: 4.866667
      value: {fileID: 21300000, guid: acfdf817ac7a17a4fb2f215d1c2af073, type: 3}
    - time: 4.9333334
      value: {fileID: 21300000, guid: 9d4a7bc7968f99e4e86b0c7bf7c67841, type: 3}
    attribute: m_Sprite
    path: 
    classID: 114
    script: {fileID: -765806418, guid: f70555f144d8491a825f0804e09c671c, type: 3}
  m_SampleRate: 15
  m_WrapMode: 0
  m_Bounds:
    m_Center: {x: 0, y: 0, z: 0}
    m_Extent: {x: 0, y: 0, z: 0}
  m_ClipBindingConstant:
    genericBindings:
    - serializedVersion: 2
      path: 0
      attribute: 2015549526
      script: {fileID: -765806418, guid: f70555f144d8491a825f0804e09c671c, type: 3}
      typeID: 114
      customType: 0
      isPPtrCurve: 1
    pptrCurveMapping:
    - {fileID: 21300000, guid: 4d42199ec6c35c3468f8f0cc12024b95, type: 3}
    - {fileID: 21300000, guid: 6ef708366a25e1f44b3f7879049990d6, type: 3}
    - {fileID: 21300000, guid: 034be098c6306934ba9cfda2a4dbc22c, type: 3}
    - {fileID: 21300000, guid: cfb09816f0bbb73408493274786df62b, type: 3}
    - {fileID: 21300000, guid: 82fc526ebeabc9040aea2561f5d6a5ca, type: 3}
    - {fileID: 21300000, guid: b5ea88640f22fa34a84c7fb48b472e7d, type: 3}
    - {fileID: 21300000, guid: a729a8e904ce5e1479c46ab39faf0cb4, type: 3}
    - {fileID: 21300000, guid: b28e320ba9ee5b34482d5f50103c0b27, type: 3}
    - {fileID: 21300000, guid: 1d3740e17150c664983eef6a74252847, type: 3}
    - {fileID: 21300000, guid: 79d93c1fd8a397647855caa2a3dd50cc, type: 3}
    - {fileID: 21300000, guid: 7ed5753dca7f06747b4fdbc41e777de0, type: 3}
    - {fileID: 21300000, guid: 943822e53ee56504fb4de34eaebb2bee, type: 3}
    - {fileID: 21300000, guid: e664e748b10be8e418265c47ce74d3e6, type: 3}
    - {fileID: 21300000, guid: ad1195756c1a32f4d8714725842b5700, type: 3}
    - {fileID: 21300000, guid: 17741a31908464441b960d961771f9b1, type: 3}
    - {fileID: 21300000, guid: 31be7bf1ab0e1974696ba559e685dfb2, type: 3}
    - {fileID: 21300000, guid: f861768c4be80e14fb8e663870614d5e, type: 3}
    - {fileID: 21300000, guid: 5c19b71a874ba054d87cdbc28d771608, type: 3}
    - {fileID: 21300000, guid: 9aa3e1e6d97b56f4f931f923208a7e73, type: 3}
    - {fileID: 21300000, guid: f1706baeb10412d44ab878194e01552c, type: 3}
    - {fileID: 21300000, guid: c7454dd0cf0e3c747b70d63280735745, type: 3}
    - {fileID: 21300000, guid: 059779c6668f26c4dbabedd2a1ff43fc, type: 3}
    - {fileID: 21300000, guid: 73f5053ab9d759247978b4a3a752ae33, type: 3}
    - {fileID: 21300000, guid: f45daea60dee6064ca7723cf213bc400, type: 3}
    - {fileID: 21300000, guid: 05776b43d17bcd2448cf587c226d1929, type: 3}
    - {fileID: 21300000, guid: d8b8bb4223b45894b90a1fc0e1634447, type: 3}
    - {fileID: 21300000, guid: 83c8738d9d895ef4193eecf9c316fed6, type: 3}
    - {fileID: 21300000, guid: c0cfd7bfb7515d04a9905bf59d541def, type: 3}
    - {fileID: 21300000, guid: d46d4e6980a7fa54d9f12b04a11170ff, type: 3}
    - {fileID: 21300000, guid: d5c8711f8ba233d498ab6656f3d8e828, type: 3}
    - {fileID: 21300000, guid: 5dc247da6c2a3d64ca6eae5266880396, type: 3}
    - {fileID: 21300000, guid: 744d271657b54334b97ef8c1dd39bc8f, type: 3}
    - {fileID: 21300000, guid: b9703b7a06f675e4b81f5a747df78295, type: 3}
    - {fileID: 21300000, guid: 9365e07eac66ee84f8f5a3b88879c0ee, type: 3}
    - {fileID: 21300000, guid: eb9ba05328ba6844d95a899deec48aca, type: 3}
    - {fileID: 21300000, guid: 2a7006ff9e2928247b982acf8d421e4e, type: 3}
    - {fileID: 21300000, guid: dcc29ffff4798da42bf3244b95d1aa0e, type: 3}
    - {fileID: 21300000, guid: 689fa28b287309041a322d6cc8351ea0, type: 3}
    - {fileID: 21300000, guid: 91146e1cc4856ed44837672315ddfe2a, type: 3}
    - {fileID: 21300000, guid: fca1ffc9b17234448b3f570a79fd1192, type: 3}
    - {fileID: 21300000, guid: 6f0e8fbc24fb771488f259dd1c6dad66, type: 3}
    - {fileID: 21300000, guid: 09a284134d9242640a90f8aadd8403a0, type: 3}
    - {fileID: 21300000, guid: bc9e6cebfebb91a48aec448d530ee76e, type: 3}
    - {fileID: 21300000, guid: e03535d09b9a15c428120b17005cffdb, type: 3}
    - {fileID: 21300000, guid: 7d38112c38500af4aabde6bff8e466a7, type: 3}
    - {fileID: 21300000, guid: 7a0a1c5273fb69b46a3722769f70822e, type: 3}
    - {fileID: 21300000, guid: bc3a3d6d07f104140a82f018538137f2, type: 3}
    - {fileID: 21300000, guid: 328772051e67402478889cbfc04f6ea0, type: 3}
    - {fileID: 21300000, guid: 0d8871347268b0740911de936faabf1c, type: 3}
    - {fileID: 21300000, guid: bceff23077c07a24b91a9fc1455d9d4d, type: 3}
    - {fileID: 21300000, guid: f14df95bb6415e444bbfbf1ee155cbba, type: 3}
    - {fileID: 21300000, guid: 5b69d2c5b32b44d499b67c0b1c4b39db, type: 3}
    - {fileID: 21300000, guid: b56596ef06764c440addb23a0f399522, type: 3}
    - {fileID: 21300000, guid: c52cd49e2fc5f5a47bed4cd8010c7ead, type: 3}
    - {fileID: 21300000, guid: e885e35d7ebdac6489cf18f97d14fecd, type: 3}
    - {fileID: 21300000, guid: 6e8fd6eb7e177ba41a547634338d0488, type: 3}
    - {fileID: 21300000, guid: 5172695429478b44c9970af1f5c99429, type: 3}
    - {fileID: 21300000, guid: 104bdffe1f56dbc4fa22769deab3af37, type: 3}
    - {fileID: 21300000, guid: 544634c9812813e4f81fd6cc24508688, type: 3}
    - {fileID: 21300000, guid: 7f2fb80d1e2f66c46a84d5266a48eca6, type: 3}
    - {fileID: 21300000, guid: 0eafcb58ce9c98a49ab5c889c62a7fd0, type: 3}
    - {fileID: 21300000, guid: 0862473a42943c8488f0783029f97006, type: 3}
    - {fileID: 21300000, guid: a4f38675e37421f40b3e13f715065813, type: 3}
    - {fileID: 21300000, guid: de5eeecef08e8b24ca8fdeaad2b11426, type: 3}
    - {fileID: 21300000, guid: db1b02d93270c58478d7d9e1c4cfccc9, type: 3}
    - {fileID: 21300000, guid: a69f2988aad4bc948878d0b580b01e45, type: 3}
    - {fileID: 21300000, guid: 8aa22777b37386c40923a1b2ddee38cf, type: 3}
    - {fileID: 21300000, guid: 5eb9d368a6887e541b54e18e573e01ec, type: 3}
    - {fileID: 21300000, guid: c905dde291cc51749b224e6f5e9e9ea9, type: 3}
    - {fileID: 21300000, guid: 283299448ef64a44db618ecc4935f89b, type: 3}
    - {fileID: 21300000, guid: 52bc2450a2d704b4d97ad5f1ac4d08ad, type: 3}
    - {fileID: 21300000, guid: a14d82b70396aea48a36308723a29970, type: 3}
    - {fileID: 21300000, guid: fa34943f9c3e39640afb76d169130e35, type: 3}
    - {fileID: 21300000, guid: acfdf817ac7a17a4fb2f215d1c2af073, type: 3}
    - {fileID: 21300000, guid: 9d4a7bc7968f99e4e86b0c7bf7c67841, type: 3}
  m_AnimationClipSettings:
    serializedVersion: 2
    m_AdditiveReferencePoseClip: {fileID: 0}
    m_AdditiveReferencePoseTime: 0
    m_StartTime: 0
    m_StopTime: 5
    m_OrientationOffsetY: 0
    m_Level: 0
    m_CycleOffset: 0
    m_HasAdditiveReferencePose: 0
    m_LoopTime: 1
    m_LoopBlend: 0
    m_LoopBlendOrientation: 0
    m_LoopBlendPositionY: 0
    m_LoopBlendPositionXZ: 0
    m_KeepOriginalOrientation: 0
    m_KeepOriginalPositionY: 1
    m_KeepOriginalPositionXZ: 0
    m_HeightFromFeet: 0
    m_Mirror: 0
  m_EditorCurves: []
  m_EulerEditorCurves: []
  m_HasGenericRootTransform: 0
  m_HasMotionFloatCurves: 0
  m_Events: []
